           02 L-DATES.
              03 L-DATE PIC 9(8) OCCURS 10.
           02 L-DATE-R REDEFINES L-DATES.
              03 L-DATE-EDITION PIC 9(8).
              03 L-DATE-01 REDEFINES L-DATE-EDITION.
                 04 L-EDIT-A     PIC 9999.
                 04 L-EDIT-M     PIC 99.
                 04 L-EDIT-J     PIC 99.
              03 L-DATE-ARCHIV PIC 9(8).
              03 L-DATE-02 REDEFINES L-DATE-ARCHIV.
                 04 L-ARCHIV-A   PIC 9999.
                 04 L-ARCHIV-M   PIC 99.
                 04 L-ARCHIV-J   PIC 99.
              03 L-DATE-DERNIER PIC 9(8).
              03 L-DATE-03 REDEFINES L-DATE-DERNIER.
                 04 L-DERNIER-A  PIC 9999.
                 04 L-DERNIER-M  PIC 99.
                 04 L-DERNIER-J  PIC 99.
              03 L-DATE-REPRISE PIC 9(8).
              03 L-DATE-04 REDEFINES L-DATE-REPRISE.
                 04 L-REPRISE-A  PIC 9999.
                 04 L-REPRISE-M  PIC 99.
                 04 L-REPRISE-J  PIC 99.
              03 L-DATE-SNOCS PIC 9(8).
              03 L-DATE-05 REDEFINES L-DATE-SNOCS.
                 04 L-SNOCS-A    PIC 9999.
                 04 L-SNOCS-M    PIC 99.
                 04 L-SNOCS-J    PIC 99.
              03 L-DATE-3M REDEFINES L-DATE-SNOCS.
                 04 L-3M-A    PIC 9999.
                 04 L-3M-M    PIC 99.
                 04 L-3M-J    PIC 99.
              03 L-DATE-DOCUMENT PIC 9(8).
              03 L-DATE-06 REDEFINES L-DATE-DOCUMENT.
                 04 L-DOC-A     PIC 9999.
                 04 L-DOC-M     PIC 99.
                 04 L-DOC-J     PIC 99.
              03 L-DATE-CERT-IMP PIC 9(8).
              03 L-DATE-07 REDEFINES L-DATE-CERT-IMP.
                 04 L-CERT-IMP-A    PIC 9999.
                 04 L-CERT-IMP-M    PIC 99.
                 04 L-CERT-IMP-J    PIC 99.
              03 L-DATE-CCCCC PIC 9(8).
              03 L-DATE-08 REDEFINES L-DATE-CCCCC.
                 04 L-CCCCC-A    PIC 9999.
                 04 L-CCCCC-M    PIC 99.
                 04 L-CCCCC-J    PIC 99.
              03 L-DATE-DDDDD PIC 9(8).
              03 L-DATE-09 REDEFINES L-DATE-DDDDD.
                 04 L-DDDDD-A    PIC 9999.
                 04 L-DDDDD-M    PIC 99.
                 04 L-DDDDD-J    PIC 99.
              03 L-DATE-EEEEE PIC 9(8).
              03 L-DATE-10 REDEFINES L-DATE-EEEEE.
                 04 L-EEEEE-A    PIC 9999.
                 04 L-EEEEE-M    PIC 99.
                 04 L-EEEEE-J    PIC 99.
